Siesta Version:                                        siesta-trunk-300
Architecture  : nano-intel-mpi
Compiler flags: /opt/intel/impi/3.1/bin64/mpiifort -w  -O3 -mp
PARALLEL version
NetCDF support

* Running on    4 nodes in parallel
>> Start of run:  29-SEP-2009  17:09:12

                           ***********************       
                           *  WELCOME TO SIESTA  *       
                           ***********************       

reinit: Reading from standard input
************************** Dump of input data file ****************************
SystemName          Water molecule
SystemLabel         h2o_dos
NumberOfAtoms       3
NumberOfSpecies     2
MeshCutoff  50 Ry
%block Projected-density-of-states
-26.00 4.00 0.200 500 eV
%endblock Projected-density-of-states
%block kgrid_Monkhorst_Pack
   2  0  0  0.5
   0  2  0  0.5
   0  0  2  0.5
%endblock kgrid_Monkhorst_Pack
%block ChemicalSpeciesLabel
 1  8  O      # Species index, atomic number, species label
 2  1  H
%endblock ChemicalSpeciesLabel
AtomicCoordinatesFormat  Ang
%block AtomicCoordinatesAndAtomicSpecies
 0.000  0.000  0.000  1
 0.757  0.586  0.000  2
-0.757  0.586  0.000  2
%endblock AtomicCoordinatesAndAtomicSpecies
************************** End of input data file *****************************

reinit: -----------------------------------------------------------------------
reinit: System Name: Water molecule
reinit: -----------------------------------------------------------------------
reinit: System Label: h2o_dos                                                     
reinit: -----------------------------------------------------------------------

initatom: Reading input for the pseudopotentials and atomic orbitals ----------
 Species number:            1  Label: O Atomic number:           8
 Species number:            2  Label: H Atomic number:           1
Ground state valence configuration:   2s02  2p04
Reading pseudopotential information in formatted form from O.psf

Valence configuration for pseudopotential generation:
2s( 2.00) rc: 1.14
2p( 4.00) rc: 1.14
3d( 0.00) rc: 1.14
4f( 0.00) rc: 1.14
Ground state valence configuration:   1s01
Reading pseudopotential information in formatted form from H.psf

Valence configuration for pseudopotential generation:
1s( 1.00) rc: 1.25
2p( 0.00) rc: 1.25
3d( 0.00) rc: 1.25
4f( 0.00) rc: 1.25
For O, standard SIESTA heuristics set lmxkb to 3
 (one more than the basis l, including polarization orbitals).
Use PS.lmax or PS.KBprojectors blocks to override.
For H, standard SIESTA heuristics set lmxkb to 2
 (one more than the basis l, including polarization orbitals).
Use PS.lmax or PS.KBprojectors blocks to override.

<basis_specs>
===============================================================================
O                    Z=   8    Mass=  16.000        Charge= 0.17977+309
Lmxo=1 Lmxkb=3     BasisType=split      Semic=F
L=0  Nsemic=0  Cnfigmx=2
          n=1  nzeta=2  polorb=0
            splnorm:   0.15000    
               vcte:    0.0000    
               rinn:    0.0000    
                rcs:    0.0000      0.0000    
            lambdas:    1.0000      1.0000    
L=1  Nsemic=0  Cnfigmx=2
          n=1  nzeta=2  polorb=1
            splnorm:   0.15000    
               vcte:    0.0000    
               rinn:    0.0000    
                rcs:    0.0000      0.0000    
            lambdas:    1.0000      1.0000    
-------------------------------------------------------------------------------
L=0  Nkbl=1  erefs: 0.17977+309
L=1  Nkbl=1  erefs: 0.17977+309
L=2  Nkbl=1  erefs: 0.17977+309
L=3  Nkbl=1  erefs: 0.17977+309
===============================================================================
</basis_specs>

atom: Called for O                     (Z =   8)

read_vps: Pseudopotential generation method:
read_vps: ATM3      Troullier-Martins                       
Total valence charge:    6.00000

xc_check: Exchange-correlation functional:
xc_check: Ceperley-Alder
V l=0 = -2*Zval/r beyond r=  1.1278
V l=1 = -2*Zval/r beyond r=  1.1278
V l=2 = -2*Zval/r beyond r=  1.1278
V l=3 = -2*Zval/r beyond r=  1.1138
All V_l potentials equal beyond r=  1.1278
This should be close to max(r_c) in ps generation
All pots = -2*Zval/r beyond r=  1.1278

VLOCAL1: 99.0% of the norm of Vloc inside     34.126 Ry
VLOCAL1: 99.9% of the norm of Vloc inside     77.774 Ry
atom: Maximum radius for 4*pi*r*r*local-pseudopot. charge    1.37759
atom: Maximum radius for r*vlocal+2*Zval:    1.18566
GHOST: No ghost state for L =  0
GHOST: No ghost state for L =  1
GHOST: No ghost state for L =  2
GHOST: No ghost state for L =  3

KBgen: Kleinman-Bylander projectors: 
   l= 0   rc=  1.294105   el= -1.742414   Ekb=  9.135903   kbcos=  0.326910
   l= 1   rc=  1.294105   el= -0.676589   Ekb= -8.124878   kbcos= -0.395047
   l= 2   rc=  1.448233   el=  0.002386   Ekb= -2.039267   kbcos= -0.003484
   l= 3   rc=  1.561052   el=  0.003508   Ekb= -0.799141   kbcos= -0.000344

KBgen: Total number of  Kleinman-Bylander projectors:   16
atom: -------------------------------------------------------------------------

atom: SANKEY-TYPE ORBITALS:
atom: Selected multiple-zeta basis: split     

SPLIT: Orbitals with angular momentum L= 0

SPLIT: Basis orbitals for state 2s

SPLIT: PAO cut-off radius determined from an
SPLIT: energy shift=  0.020000 Ry

   izeta = 1
                 lambda =    1.000000
                     rc =    3.305093
                 energy =   -1.723766
                kinetic =    1.614911
    potential(screened) =   -3.338677
       potential(ionic) =  -11.304675

   izeta = 2
                 rmatch =    2.510382
              splitnorm =    0.150000
                 energy =   -1.471299
                kinetic =    2.446434
    potential(screened) =   -3.917732
       potential(ionic) =  -12.476133

SPLIT: Orbitals with angular momentum L= 1

SPLIT: Basis orbitals for state 2p

SPLIT: PAO cut-off radius determined from an
SPLIT: energy shift=  0.020000 Ry

   izeta = 1
                 lambda =    1.000000
                     rc =    3.937239
                 energy =   -0.658841
                kinetic =    5.005986
    potential(screened) =   -5.664827
       potential(ionic) =  -13.452360

   izeta = 2
                 rmatch =    2.541963
              splitnorm =    0.150000
                 energy =   -0.367441
                kinetic =    7.530509
    potential(screened) =   -7.897949
       potential(ionic) =  -16.611953

POLgen: Perturbative polarization orbital with L=  2

POLgen: Polarization orbital for state 2p

   izeta = 1
                     rc =    3.937239
                 energy =    2.398520
                kinetic =    4.716729
    potential(screened) =   -2.318209
       potential(ionic) =   -8.603170
atom: Total number of Sankey-type orbitals: 13

atm_pop: Valence configuration (for local Pseudopot. screening):
 2s( 2.00)                                                            
 2p( 4.00)                                                            
Vna: chval, zval:    6.00000   6.00000

Vna:  Cut-off radius for the neutral-atom potential:   3.937239

atom: _________________________________________________________________________

<basis_specs>
===============================================================================
H                    Z=   1    Mass=  1.0100        Charge= 0.17977+309
Lmxo=0 Lmxkb=2     BasisType=split      Semic=F
L=0  Nsemic=0  Cnfigmx=1
          n=1  nzeta=2  polorb=1
            splnorm:   0.15000    
               vcte:    0.0000    
               rinn:    0.0000    
                rcs:    0.0000      0.0000    
            lambdas:    1.0000      1.0000    
-------------------------------------------------------------------------------
L=0  Nkbl=1  erefs: 0.17977+309
L=1  Nkbl=1  erefs: 0.17977+309
L=2  Nkbl=1  erefs: 0.17977+309
===============================================================================
</basis_specs>

atom: Called for H                     (Z =   1)

read_vps: Pseudopotential generation method:
read_vps: ATM3      Troullier-Martins                       
Total valence charge:    1.00000

xc_check: Exchange-correlation functional:
xc_check: Ceperley-Alder
V l=0 = -2*Zval/r beyond r=  1.2343
V l=1 = -2*Zval/r beyond r=  1.2189
V l=2 = -2*Zval/r beyond r=  1.2189
All V_l potentials equal beyond r=  1.2343
This should be close to max(r_c) in ps generation
All pots = -2*Zval/r beyond r=  1.2343

VLOCAL1: 99.0% of the norm of Vloc inside     28.493 Ry
VLOCAL1: 99.9% of the norm of Vloc inside     64.935 Ry
atom: Maximum radius for 4*pi*r*r*local-pseudopot. charge    1.45251
atom: Maximum radius for r*vlocal+2*Zval:    1.21892
GHOST: No ghost state for L =  0
GHOST: No ghost state for L =  1
GHOST: No ghost state for L =  2

KBgen: Kleinman-Bylander projectors: 
   l= 0   rc=  1.364359   el= -0.467325   Ekb= -2.005361   kbcos= -0.336422
   l= 1   rc=  1.434438   el=  0.001430   Ekb= -0.501708   kbcos= -0.021697
   l= 2   rc=  1.470814   el=  0.002365   Ekb= -0.190555   kbcos= -0.002281

KBgen: Total number of  Kleinman-Bylander projectors:    9
atom: -------------------------------------------------------------------------

atom: SANKEY-TYPE ORBITALS:
atom: Selected multiple-zeta basis: split     

SPLIT: Orbitals with angular momentum L= 0

SPLIT: Basis orbitals for state 1s

SPLIT: PAO cut-off radius determined from an
SPLIT: energy shift=  0.020000 Ry

   izeta = 1
                 lambda =    1.000000
                     rc =    4.828263
                 energy =   -0.449375
                kinetic =    0.929372
    potential(screened) =   -1.378747
       potential(ionic) =   -1.915047

   izeta = 2
                 rmatch =    3.854947
              splitnorm =    0.150000
                 energy =   -0.336153
                kinetic =    1.505294
    potential(screened) =   -1.841447
       potential(ionic) =   -2.413582

POLgen: Perturbative polarization orbital with L=  1

POLgen: Polarization orbital for state 1s

   izeta = 1
                     rc =    4.828263
                 energy =    0.706972
                kinetic =    1.396397
    potential(screened) =   -0.689424
       potential(ionic) =   -1.169792
atom: Total number of Sankey-type orbitals:  5

atm_pop: Valence configuration (for local Pseudopot. screening):
 1s( 1.00)                                                            
Vna: chval, zval:    1.00000   1.00000

Vna:  Cut-off radius for the neutral-atom potential:   4.828263

atom: _________________________________________________________________________

prinput: Basis input ----------------------------------------------------------

PAO.BasisType split     

%block ChemicalSpeciesLabel
    1    8 O                       # Species index, atomic number, species label
    2    1 H                       # Species index, atomic number, species label
%endblock ChemicalSpeciesLabel

%block PAO.Basis                 # Define Basis set
O                     2                    # Species label, number of l-shells
 n=2   0   2                         # n, l, Nzeta 
   3.305      2.510   
   1.000      1.000   
 n=2   1   2 P   1                   # n, l, Nzeta, Polarization, NzetaPol
   3.937      2.542   
   1.000      1.000   
H                     1                    # Species label, number of l-shells
 n=1   0   2 P   1                   # n, l, Nzeta, Polarization, NzetaPol
   4.828      3.855   
   1.000      1.000   
%endblock PAO.Basis

prinput: ----------------------------------------------------------------------

Dumping basis to NetCDF file O.ion.nc
Dumping basis to NetCDF file H.ion.nc
coor:   Atomic-coordinates input format  =     Cartesian coordinates
coor:                                          (in Angstroms)

siesta: Atomic coordinates (Bohr) and species
siesta:      0.00000   0.00000   0.00000  1        1
siesta:      1.43052   1.10738   0.00000  2        2
siesta:     -1.43052   1.10738   0.00000  2        3

siesta: Automatic unit cell vectors (Ang):
siesta:    7.286412    0.000000    0.000000
siesta:    0.000000    5.746952    0.000000
siesta:    0.000000    0.000000    5.621012

siesta: System type = molecule  

initatomlists: Number of atoms, orbitals, and projectors:      3    23    34

siesta: ******************** Simulation parameters ****************************
siesta:
siesta: The following are some of the parameters of the simulation.
siesta: A complete list of the parameters used, including default values,
siesta: can be found in file out.fdf
siesta:
redata: Non-Collinear-spin run           =     F
redata: SpinPolarized (Up/Down) run      =     F
redata: Number of spin components        =     1
redata: Long output                      =     F
redata: Number of Atomic Species         =        2
redata: Charge density info will appear in .RHO file
redata: Write Mulliken Pop.              =     NO
redata: Mesh Cutoff                      =    50.0000  Ry
redata: Net charge of the system         =     0.0000 |e|
redata: Max. number of SCF Iter          =       50
redata: Mixing is linear
redata: Mix DM in first SCF step ?       =     F
redata: Write Pulay info on disk?        =     F
redata: New DM Mixing Weight             =     0.2500
redata: New DM Occupancy tolerance       = 0.000000000001
redata: No kicks to SCF
redata: DM Mixing Weight for Kicks       =     0.5000
redata: DM Tolerance for SCF             =     0.000100
redata: Require Energy convergence for SCF =     F
redata: DM Energy tolerance for SCF      =     0.000100 eV
redata: Require Harris convergence for SCF =     F
redata: DM Harris energy tolerance for SCF =     0.000100 eV
redata: Using Saved Data (generic)   =     F
redata: Use continuation files for DM    =     F
redata: Neglect nonoverlap interactions  =     F
redata: Method of Calculation            =     Diagonalization
redata: Divide and Conquer               =     T
redata: Electronic Temperature           =     0.0019  Ry
redata: Fix the spin of the system       =     F
redata: Dynamics option                  =     Verlet MD run
redata: Initial MD time step             =        1
redata:   Final MD time step             =        1
redata: Length of MD time step           =     1.0000  fs
redata: Initial Temperature of MD run    =     0.0000  K
redata: Perform a MD quench              =     F
redata: ***********************************************************************
Total number of electrons:     8.000000
Total ionic charge:     8.000000

* ProcessorY, Blocksize:    2   6

 Kpoints in:            4 . Kpoints trimmed:            4

siesta: k-grid: Number of k-points =     4
siesta: k-grid: Cutoff (effective) =     5.621 Ang
siesta: k-grid: Supercell and displacements
siesta: k-grid:    2   0   0      0.500
siesta: k-grid:    0   2   0      0.500
siesta: k-grid:    0   0   2      0.500
Naive supercell factors:     2    3    3

superc: Internal auxiliary supercell:     2 x     3 x     3  =      18
superc: Number of atoms, orbitals, and projectors:     54   414   612

* Maximum dynamic memory allocated =     2 MB

siesta:                 ==============================
                            Begin MD step =      1
                        ==============================

superc: Internal auxiliary supercell:     2 x     3 x     3  =      18
superc: Number of atoms, orbitals, and projectors:     54   414   612

outcell: Unit cell vectors (Ang):
        7.286412    0.000000    0.000000
        0.000000    5.746952    0.000000
        0.000000    0.000000    5.621012

outcell: Cell vector modules (Ang)   :    7.286412    5.746952    5.621012
outcell: Cell angles (23,13,12) (deg):     90.0000     90.0000     90.0000
outcell: Cell volume (Ang**3)        :    235.3780
New_DM. Step:     1
Initializing Density Matrix...

InitMesh: MESH =    32 x    30 x    24 =       23040
InitMesh: Mesh cutoff (required, used) =    50.000    50.384 Ry

* Maximum dynamic memory allocated =     3 MB

stepf: Fermi-Dirac step function

siesta: Program's energy decomposition (eV):
siesta: Eions   =       815.854478
siesta: Ena     =       175.154321
siesta: Ekin    =       341.667405
siesta: Enl     =       -52.736757
siesta: DEna    =        -0.000001
siesta: DUscf   =         0.000000
siesta: DUext   =         0.000000
siesta: Exc     =      -109.951257
siesta: eta*DQ  =         0.000000
siesta: Emadel  =         0.000000
siesta: Emeta   =         0.000000
siesta: Emolmec =         0.000000
siesta: Ekinion =         0.000000
siesta: Eharris =      -466.432273
siesta: Etot    =      -461.720767
siesta: FreeEng =      -461.720767

siesta: iscf   Eharris(eV)      E_KS(eV)   FreeEng(eV)   dDmax  Ef(eV)
siesta:    1     -466.4323     -461.7208     -461.7208  1.4387 -4.2540
timer: Routine,Calls,Time,% = IterSCF        1       5.803  78.78
elaps: Routine,Calls,Wall,% = IterSCF        1       1.411  76.53
siesta:    2     -466.8722     -465.2445     -465.2445  0.1756 -0.1529
siesta:    3     -465.9284     -465.4675     -465.4675  0.0515 -1.5917
siesta:    4     -465.8492     -465.5676     -465.5676  0.0176 -1.9990
siesta:    5     -465.8416     -465.6366     -465.6366  0.0087 -2.1171
siesta:    6     -465.8409     -465.6877     -465.6877  0.0083 -2.1503
siesta:    7     -465.8407     -465.7259     -465.7259  0.0067 -2.1586
siesta:    8     -465.8407     -465.7546     -465.7546  0.0051 -2.1601
siesta:    9     -465.8407     -465.7761     -465.7761  0.0038 -2.1599
siesta:   10     -465.8407     -465.7923     -465.7923  0.0028 -2.1594
siesta:   11     -465.8407     -465.8044     -465.8044  0.0021 -2.1591
siesta:   12     -465.8407     -465.8134     -465.8134  0.0016 -2.1588
siesta:   13     -465.8406     -465.8202     -465.8202  0.0012 -2.1587
siesta:   14     -465.8407     -465.8254     -465.8254  0.0009 -2.1586
siesta:   15     -465.8407     -465.8292     -465.8292  0.0006 -2.1586
siesta:   16     -465.8407     -465.8321     -465.8321  0.0005 -2.1585
siesta:   17     -465.8407     -465.8342     -465.8342  0.0004 -2.1585
siesta:   18     -465.8407     -465.8358     -465.8358  0.0003 -2.1585
siesta:   19     -465.8407     -465.8371     -465.8371  0.0002 -2.1585
siesta:   20     -465.8407     -465.8380     -465.8380  0.0001 -2.1585
siesta:   21     -465.8407     -465.8386     -465.8386  0.0001 -2.1585
siesta:   22     -465.8407     -465.8391     -465.8391  0.0001 -2.1585

siesta: E_KS(eV) =             -465.8395

siesta: E_KS - E_eggbox =      -465.8395

siesta: Atomic forces (eV/Ang):
----------------------------------------
   Tot   -0.000002    0.055875    0.000000
----------------------------------------
   Max    0.718756
   Res    0.400158    sqrt( Sum f_i^2 / 3N )
----------------------------------------
   Max    0.718756    constrained

Stress-tensor-Voigt (kbar):      -20.21       -3.68       22.43        0.00        0.00        0.00
(Free)E + p*V (eV/cell)     -465.7680
Target enthalpy (eV/cell)     -465.8395

siesta: Stress tensor (static) (eV/Ang**3):
        -0.012615    0.000000    0.000000
         0.000000   -0.002296    0.000000
         0.000000    0.000000    0.013999

siesta: Pressure (static):          0.48674730  kBar

siesta: Stress tensor (total) (eV/Ang**3):
        -0.012615    0.000000    0.000000
         0.000000   -0.002296    0.000000
         0.000000    0.000000    0.013999

siesta: Pressure (total):          0.48674730  kBar

siesta: Temp_ion =       0.000 K

* Maximum dynamic memory allocated =     4 MB
siesta: PDOS info: 
siesta: e1, e2, sigma, nhist:   -26.00 eV    4.00 eV    0.20 eV    500

siesta: Program's energy decomposition (eV):
siesta: Eions   =       815.854478
siesta: Ena     =       175.154321
siesta: Ekin    =       350.792143
siesta: Enl     =       -61.961937
siesta: DEna    =        -1.782309
siesta: DUscf   =         0.727482
siesta: DUext   =         0.000000
siesta: Exc     =      -112.914758
siesta: eta*DQ  =         0.000000
siesta: Emadel  =         0.000000
siesta: Emeta   =         0.000000
siesta: Emolmec =         0.000000
siesta: Ekinion =         0.000000
siesta: Eharris =      -465.840674
siesta: Etot    =      -465.839536
siesta: FreeEng =      -465.839536

siesta: Final energy (eV):
siesta:       Kinetic =     350.792143
siesta:       Hartree =     382.623820
siesta:    Ext. field =       0.000000
siesta:   Exch.-corr. =    -112.914758
siesta:  Ion-electron =   -1072.834870
siesta:       Ion-ion =     -13.505871
siesta:       Ekinion =       0.000000
siesta:         Total =    -465.839536

siesta: Atomic forces (eV/Ang):
siesta:      1   -0.000002   -0.502196    0.000000
siesta:      2    0.718755    0.279035    0.000000
siesta:      3   -0.718756    0.279036    0.000000
siesta: ----------------------------------------
siesta:    Tot   -0.000002    0.055875    0.000000

siesta: Stress tensor (static) (eV/Ang**3):
siesta:    -0.012615    0.000000    0.000000
siesta:     0.000000   -0.002296    0.000000
siesta:     0.000000    0.000000    0.013999

siesta: Cell volume =        235.378012 Ang**3

siesta: Pressure (static):
siesta:                Solid            Molecule  Units
siesta:           0.00000331         -0.00001818  Ry/Bohr**3
siesta:           0.00030380         -0.00166947  eV/Ang**3
siesta:           0.48674730         -2.67482241  kBar
(Free)E+ p_basis*V_orbitals  =        -465.254369
(Free)Eharris+ p_basis*V_orbitals  =        -465.255902

siesta: Electric dipole (a.u.)  =    0.000000    0.558225    0.000000
siesta: Electric dipole (Debye) =    0.000000    1.418867    0.000000

* Maximum dynamic memory allocated : Node    0 =     4 MB
* Maximum dynamic memory allocated : Node    1 =     3 MB
* Maximum dynamic memory allocated : Node    2 =     3 MB
* Maximum dynamic memory allocated : Node    3 =     3 MB

* Maximum memory occured during ranger                        

timer: CPU execution times:
timer:  Routine       Calls   Time/call    Tot.time        %
timer:  siesta            1      10.008      10.008   100.00
timer:  Setup             1       0.854       0.854     8.53
timer:  bands             1       0.000       0.000     0.00
timer:  writewave         1       0.000       0.000     0.00
timer:  KSV_init          1       0.000       0.000     0.00
timer:  IterMD            1       8.835       8.835    88.27
timer:  hsparse           1       0.000       0.000     0.00
timer:  overlap           1       0.568       0.568     5.67
timer:  IterSCF          22       0.364       8.019    80.12
timer:  kinefsm           2       0.244       0.488     4.88
timer:  nlefsm            2       2.295       4.590    45.86
timer:  DHSCF            23       0.039       0.894     8.93
timer:  DHSCF1            1       0.047       0.047     0.47
timer:  DHSCF2            1       0.065       0.065     0.65
timer:  REORD           186       0.000       0.008     0.08
timer:  POISON           24       0.008       0.183     1.83
timer:  DHSCF3           23       0.032       0.738     7.37
timer:  rhoofd           23       0.007       0.158     1.58
timer:  cellXC           23       0.006       0.138     1.38
timer:  vmat             23       0.007       0.172     1.72
timer:  MolMec            2       0.000       0.000     0.00
timer:  diagon           22       0.067       1.482    14.81
timer:  c-eigval         88       0.008       0.726     7.25
timer:  c-buildHS        88       0.000       0.001     0.01
timer:  cdiag           180       0.008       1.495    14.94
timer:  cdiag1          180       0.000       0.086     0.86
timer:  cdiag2          180       0.001       0.171     1.71
timer:  cdiag3          180       0.006       1.165    11.64
timer:  cdiag4          180       0.000       0.028     0.28
timer:  c-eigvec         88       0.008       0.738     7.37
timer:  c-buildD         88       0.000       0.007     0.07
timer:  DHSCF4            1       0.038       0.038     0.38
timer:  dfscf             1       0.032       0.032     0.32
timer:  overfsm           1       0.001       0.001     0.01
timer:  pdos              1       0.118       0.118     1.18
timer:  optical           1       0.195       0.195     1.95
  

elaps: ELAPSED times:
elaps:  Routine       Calls   Time/call    Tot.time        %
elaps:  siesta            1       2.504       2.504    99.99
elaps:  Setup             1       0.215       0.215     8.57
elaps:  bands             1       0.000       0.000     0.00
elaps:  writewave         1       0.000       0.000     0.02
elaps:  KSV_init          1       0.000       0.000     0.00
elaps:  IterMD            1       2.209       2.209    88.20
elaps:  hsparse           1       0.000       0.000     0.01
elaps:  overlap           1       0.117       0.117     4.67
elaps:  IterSCF          22       0.089       1.965    78.46
elaps:  kinefsm           2       0.049       0.098     3.92
elaps:  nlefsm            2       0.577       1.155    46.11
elaps:  DHSCF            23       0.010       0.225     8.97
elaps:  DHSCF1            1       0.012       0.012     0.48
elaps:  DHSCF2            1       0.017       0.017     0.66
elaps:  REORD           186       0.000       0.003     0.11
elaps:  POISON           24       0.002       0.046     1.84
elaps:  DHSCF3           23       0.008       0.183     7.30
elaps:  rhoofd           23       0.002       0.050     2.00
elaps:  cellXC           23       0.001       0.034     1.35
elaps:  vmat             23       0.002       0.041     1.66
elaps:  MolMec            2       0.000       0.000     0.00
elaps:  diagon           22       0.017       0.372    14.85
elaps:  c-eigval         88       0.002       0.183     7.30
elaps:  c-buildHS        88       0.000       0.001     0.04
elaps:  cdiag           180       0.002       0.374    14.93
elaps:  cdiag1          180       0.000       0.023     0.91
elaps:  cdiag2          180       0.000       0.043     1.70
elaps:  cdiag3          180       0.002       0.292    11.64
elaps:  cdiag4          180       0.000       0.007     0.29
elaps:  c-eigvec         88       0.002       0.185     7.37
elaps:  c-buildD         88       0.000       0.002     0.07
elaps:  DHSCF4            1       0.012       0.012     0.48
elaps:  dfscf             1       0.010       0.010     0.40
elaps:  overfsm           1       0.000       0.000     0.01
elaps:  pdos              1       0.076       0.076     3.04
elaps:  optical           1       0.000       0.000     0.00
  
>> End of run:  29-SEP-2009  17:09:15
